{
    "albums": {
        "href": "https://api.spotify.com/v1/search?query=album%3ASuck+it+and+see&type=album&offset=0&limit=1",
        "items": [
            {
                "album_type": "album",
                "artists": [
                    {
                        "external_urls": {
                            "spotify": "https://open.spotify.com/artist/7Ln80lUS6He07XvHI8qqHH"
                        },
                        "href": "https://api.spotify.com/v1/artists/7Ln80lUS6He07XvHI8qqHH",
                        "id": "7Ln80lUS6He07XvHI8qqHH",
                        "name": "Arctic Monkeys",
                        "type": "artist",
                        "uri": "spotify:artist:7Ln80lUS6He07XvHI8qqHH"
                    }
                ],
                "available_markets": [
                    "CA",
                    "US"
                ],
                "external_urls": {
                    "spotify": "https://open.spotify.com/album/2KhJyDQAtauN6plT5PkfnV"
                },
                "href": "https://api.spotify.com/v1/albums/2KhJyDQAtauN6plT5PkfnV",
                "id": "2KhJyDQAtauN6plT5PkfnV",
                "images": [
                    {
                        "height": 640,
                        "url": "https://i.scdn.co/image/ab67616d0000b2734e1e57eb66ed6b41ac8badd1",
                        "width": 640
                    },
                    {
                        "height": 300,
                        "url": "https://i.scdn.co/image/ab67616d00001e024e1e57eb66ed6b41ac8badd1",
                        "width": 300
                    },
                    {
                        "height": 64,
                        "url": "https://i.scdn.co/image/ab67616d000048514e1e57eb66ed6b41ac8badd1",
                        "width": 64
                    }
                ],
                "name": "Suck It and See",
                "release_date": "2011-06-07",
                "release_date_precision": "day",
                "total_tracks": 12,
                "type": "album",
                "uri": "spotify:album:2KhJyDQAtauN6plT5PkfnV"
            }
        ],
        "limit": 1,
        "next": "https://api.spotify.com/v1/search?query=album%3ASuck+it+and+see&type=album&offset=1&limit=1",
        "offset": 0,
        "previous": null,
        "total": 14
    }
}